%YAML 1.1
%TAG !u! tag:unity3d.com,2011:
--- !u!74 &7400000
AnimationClip:
  m_ObjectHideFlags: 0
  m_PrefabParentObject: {fileID: 0}
  m_PrefabInternal: {fileID: 0}
  m_Name: Bedroom_camera_overview_0
  serializedVersion: 6
  m_Legacy: 0
  m_Compressed: 0
  m_UseHighQualityCurve: 1
  m_RotationCurves:
  - curve:
      serializedVersion: 2
      m_Curve:
      - time: 0
        value: {x: -0.013495792, y: 0.98613054, z: -0.12982638, w: -0.10251581}
        inSlope: {x: -0.002436418, y: -0.001938343, z: 0.0002553463, w: -0.018506438}
        outSlope: {x: -0.002436418, y: -0.001938343, z: 0.0002553463, w: -0.018506438}
        tangentMode: 0
      - time: 0.083333336
        value: {x: -0.013698827, y: 0.985969, z: -0.1298051, w: -0.10405801}
        inSlope: {x: -0.002521433, y: -0.0020223856, z: 0.00026625395, w: -0.019152224}
        outSlope: {x: -0.002521433, y: -0.0020223856, z: 0.00026625395, w: -0.019152224}
        tangentMode: 0
      - time: 0.16666667
        value: {x: -0.0139160305, y: 0.9857935, z: -0.129782, w: -0.10570785}
        inSlope: {x: -0.0026793536, y: -0.0021833181, z: 0.000287354, w: -0.020351753}
        outSlope: {x: -0.0026793536, y: -0.0021833181, z: 0.000287354, w: -0.020351753}
        tangentMode: 0
      - time: 0.25
        value: {x: -0.0141453855, y: 0.9856051, z: -0.12975721, w: -0.10744997}
        inSlope: {x: -0.00281314, y: -0.0023303032, z: 0.0003068447, w: -0.021367908}
        outSlope: {x: -0.00281314, y: -0.0023303032, z: 0.0003068447, w: -0.021367908}
        tangentMode: 0
      - time: 0.33333334
        value: {x: -0.014384887, y: 0.9854051, z: -0.12973087, w: -0.109269165}
        inSlope: {x: -0.002922339, y: -0.00246191, z: 0.00032418963, w: -0.022197379}
        outSlope: {x: -0.002922339, y: -0.00246191, z: 0.00032418963, w: -0.022197379}
        tangentMode: 0
      - time: 0.4166667
        value: {x: -0.014632442, y: 0.9851948, z: -0.12970318, w: -0.111149535}
        inSlope: {x: -0.0030070692, y: -0.0025774243, z: 0.00033929947, w: -0.022840979}
        outSlope: {x: -0.0030070692, y: -0.0025774243, z: 0.00033929947, w: -0.022840979}
        tangentMode: 0
      - time: 0.5
        value: {x: -0.014886065, y: 0.9849755, z: -0.12967432, w: -0.113075994}
        inSlope: {x: -0.0030674308, y: -0.0026754148, z: 0.00035217413, w: -0.023299506}
        outSlope: {x: -0.0030674308, y: -0.0026754148, z: 0.00035217413, w: -0.023299506}
        tangentMode: 0
      - time: 0.5833333
        value: {x: -0.01514368, y: 0.9847489, z: -0.12964448, w: -0.115032785}
        inSlope: {x: -0.0031030707, y: -0.0027537353, z: 0.00036254534, w: -0.023570275}
        outSlope: {x: -0.0031030707, y: -0.0027537353, z: 0.00036254534, w: -0.023570275}
        tangentMode: 0
      - time: 0.6666666
        value: {x: -0.015403244, y: 0.98451656, z: -0.12961389, w: -0.11700437}
        inSlope: {x: -0.0031145874, y: -0.002811671, z: 0.00037014493, w: -0.023657626}
        outSlope: {x: -0.0031145874, y: -0.002811671, z: 0.00037014493, w: -0.023657626}
        tangentMode: 0
      - time: 0.74999994
        value: {x: -0.015662778, y: 0.9842803, z: -0.12958279, w: -0.11897572}
        inSlope: {x: -0.003101791, y: -0.0028474338, z: 0.0003748835, w: -0.023560485}
        outSlope: {x: -0.003101791, y: -0.0028474338, z: 0.0003748835, w: -0.023560485}
        tangentMode: 0
      - time: 0.83333325
        value: {x: -0.015920209, y: 0.984042, z: -0.12955141, w: -0.12093112}
        inSlope: {x: -0.0030643463, y: -0.0028599508, z: 0.00037658223, w: -0.023276126}
        outSlope: {x: -0.0030643463, y: -0.0028599508, z: 0.00037658223, w: -0.023276126}
        tangentMode: 0
      - time: 0.91666657
        value: {x: -0.016173502, y: 0.98380363, z: -0.12952003, w: -0.122855075}
        inSlope: {x: -0.003002756, y: -0.0028477914, z: 0.0003747941, w: -0.02280817}
        outSlope: {x: -0.003002756, y: -0.0028477914, z: 0.0003747941, w: -0.02280817}
        tangentMode: 0
      - time: 0.9999999
        value: {x: -0.016420668, y: 0.98356736, z: -0.12948895, w: -0.12473248}
        inSlope: {x: -0.0029169242, y: -0.0028091664, z: 0.00036969775, w: -0.02215616}
        outSlope: {x: -0.0029169242, y: -0.0028091664, z: 0.00036969775, w: -0.02215616}
        tangentMode: 0
      - time: 1.0833333
        value: {x: -0.016659657, y: 0.98333544, z: -0.12945841, w: -0.12654777}
        inSlope: {x: -0.0028067739, y: -0.0027426467, z: 0.00036111457, w: -0.021319527}
        outSlope: {x: -0.0028067739, y: -0.0027426467, z: 0.00036111457, w: -0.021319527}
        tangentMode: 0
      - time: 1.1666666
        value: {x: -0.016888464, y: 0.98311025, z: -0.12942876, w: -0.12828574}
        inSlope: {x: -0.0026722723, y: -0.0026475177, z: 0.0003485976, w: -0.020297965}
        outSlope: {x: -0.0026722723, y: -0.0026475177, z: 0.0003485976, w: -0.020297965}
        tangentMode: 0
      - time: 1.25
        value: {x: -0.017105035, y: 0.9828942, z: -0.12940031, w: -0.12993076}
        inSlope: {x: -0.0025134187, y: -0.0025230634, z: 0.0003321467, w: -0.019091418}
        outSlope: {x: -0.0025134187, y: -0.0025230634, z: 0.0003321467, w: -0.019091418}
        tangentMode: 0
      - time: 1.3333334
        value: {x: -0.017307367, y: 0.98268974, z: -0.1293734, w: -0.13146764}
        inSlope: {x: -0.0023306932, y: -0.0023674953, z: 0.00031167254, w: -0.017703377}
        outSlope: {x: -0.0023306932, y: -0.0023674953, z: 0.00031167254, w: -0.017703377}
        tangentMode: 0
      - time: 1.4166667
        value: {x: -0.017493485, y: 0.9824996, z: -0.12934837, w: -0.13288133}
        inSlope: {x: -0.002123571, y: -0.0021800986, z: 0.00028699625, w: -0.016130082}
        outSlope: {x: -0.002123571, y: -0.0021800986, z: 0.00028699625, w: -0.016130082}
        tangentMode: 0
      - time: 1.5000001
        value: {x: -0.017661296, y: 0.9823264, z: -0.12932557, w: -0.13415599}
        inSlope: {x: -0.0018921187, y: -0.001961588, z: 0.0002582072, w: -0.0143721625}
        outSlope: {x: -0.0018921187, y: -0.001961588, z: 0.0002582072, w: -0.0143721625}
        tangentMode: 0
      - time: 1.5833335
        value: {x: -0.017808838, y: 0.98217267, z: -0.12930533, w: -0.13527669}
        inSlope: {x: -0.0016367503, y: -0.0017116062, z: 0.00022530544, w: -0.012432391}
        outSlope: {x: -0.0016367503, y: -0.0017116062, z: 0.00022530544, w: -0.012432391}
        tangentMode: 0
      - time: 1.6666669
        value: {x: -0.017934088, y: 0.9820411, z: -0.12928802, w: -0.13622805}
        inSlope: {x: -0.0013568841, y: -0.0014287226, z: 0.00018811217, w: -0.010306561}
        outSlope: {x: -0.0013568841, y: -0.0014287226, z: 0.00018811217, w: -0.010306561}
        tangentMode: 0
      - time: 1.7500002
        value: {x: -0.018034985, y: 0.98193455, z: -0.12927398, w: -0.13699445}
        inSlope: {x: -0.0010529007, y: -0.0011147256, z: 0.00014680617, w: -0.007997539}
        outSlope: {x: -0.0010529007, y: -0.0011147256, z: 0.00014680617, w: -0.007997539}
        tangentMode: 0
      - time: 1.8333336
        value: {x: -0.018109571, y: 0.98185533, z: -0.12926355, w: -0.13756098}
        inSlope: {x: -0.0007249672, y: -0.00077104534, z: 0.000101476864, w: -0.0055066617}
        outSlope: {x: -0.0007249672, y: -0.00077104534, z: 0.000101476864, w: -0.0055066617}
        tangentMode: 0
      - time: 1.916667
        value: {x: -0.018155813, y: 0.98180604, z: -0.12925707, w: -0.13791223}
        inSlope: {x: -0.00037267082, y: -0.0003973248, z: 0.00005230311, w: -0.0028308053}
        outSlope: {x: -0.00037267082, y: -0.0003973248, z: 0.00005230311, w: -0.0028308053}
        tangentMode: 0
      - time: 2
        value: {x: -0.018171683, y: 0.9817891, z: -0.12925483, w: -0.13803278}
        inSlope: {x: -0.00019043757, y: -0.0002031334, z: 0.000026822192, w: -0.0014466102}
        outSlope: {x: -0.00019043757, y: -0.0002031334, z: 0.000026822192, w: -0.0014466102}
        tangentMode: 0
      m_PreInfinity: 2
      m_PostInfinity: 2
      m_RotationOrder: 4
    path: 
  m_CompressedRotationCurves: []
  m_EulerCurves: []
  m_PositionCurves:
  - curve:
      serializedVersion: 2
      m_Curve:
      - time: 0
        value: {x: -2.325, y: 0.607, z: -2.086}
        inSlope: {x: 0, y: 0.2935878, z: 0}
        outSlope: {x: 0, y: 0.2935878, z: 0}
        tangentMode: 0
      - time: 2
        value: {x: -2.4474053, y: 1.922, z: -2.2084053}
        inSlope: {x: 0, y: 0.12408104, z: 0}
        outSlope: {x: Infinity, y: Infinity, z: Infinity}
        tangentMode: 0
      m_PreInfinity: 2
      m_PostInfinity: 2
      m_RotationOrder: 4
    path: 
  m_ScaleCurves: []
  m_FloatCurves: []
  m_PPtrCurves: []
  m_SampleRate: 12
  m_WrapMode: 0
  m_Bounds:
    m_Center: {x: 0, y: 0, z: 0}
    m_Extent: {x: 0, y: 0, z: 0}
  m_ClipBindingConstant:
    genericBindings:
    - path: 0
      attribute: 1
      script: {fileID: 0}
      classID: 4
      customType: 0
      isPPtrCurve: 0
    - path: 0
      attribute: 2
      script: {fileID: 0}
      classID: 4
      customType: 0
      isPPtrCurve: 0
    pptrCurveMapping: []
  m_AnimationClipSettings:
    serializedVersion: 2
    m_AdditiveReferencePoseClip: {fileID: 0}
    m_AdditiveReferencePoseTime: 0
    m_StartTime: 0
    m_StopTime: 2
    m_OrientationOffsetY: 0
    m_Level: 0
    m_CycleOffset: 0
    m_HasAdditiveReferencePose: 0
    m_LoopTime: 0
    m_LoopBlend: 0
    m_LoopBlendOrientation: 0
    m_LoopBlendPositionY: 0
    m_LoopBlendPositionXZ: 0
    m_KeepOriginalOrientation: 0
    m_KeepOriginalPositionY: 1
    m_KeepOriginalPositionXZ: 0
    m_HeightFromFeet: 0
    m_Mirror: 0
  m_EditorCurves:
  - curve:
      serializedVersion: 2
      m_Curve:
      - time: 0
        value: -2.325
        inSlope: 0
        outSlope: 0
        tangentMode: 0
      - time: 2
        value: -2.4474053
        inSlope: 0
        outSlope: Infinity
        tangentMode: 25
      m_PreInfinity: 2
      m_PostInfinity: 2
      m_RotationOrder: 4
    attribute: m_LocalPosition.x
    path: 
    classID: 4
    script: {fileID: 0}
  - curve:
      serializedVersion: 2
      m_Curve:
      - time: 0
        value: 0.607
        inSlope: 0.2935878
        outSlope: 0.2935878
        tangentMode: 0
      - time: 2
        value: 1.922
        inSlope: 0.12408104
        outSlope: Infinity
        tangentMode: 25
      m_PreInfinity: 2
      m_PostInfinity: 2
      m_RotationOrder: 4
    attribute: m_LocalPosition.y
    path: 
    classID: 4
    script: {fileID: 0}
  - curve:
      serializedVersion: 2
      m_Curve:
      - time: 0
        value: -2.086
        inSlope: 0
        outSlope: 0
        tangentMode: 0
      - time: 2
        value: -2.2084053
        inSlope: 0
        outSlope: Infinity
        tangentMode: 25
      m_PreInfinity: 2
      m_PostInfinity: 2
      m_RotationOrder: 4
    attribute: m_LocalPosition.z
    path: 
    classID: 4
    script: {fileID: 0}
  - curve:
      serializedVersion: 2
      m_Curve:
      - time: 0
        value: -0.013495792
        inSlope: -0.002436418
        outSlope: -0.002436418
        tangentMode: 0
      - time: 0.083333336
        value: -0.013698827
        inSlope: -0.002521433
        outSlope: -0.002521433
        tangentMode: 0
      - time: 0.16666667
        value: -0.0139160305
        inSlope: -0.0026793536
        outSlope: -0.0026793536
        tangentMode: 0
      - time: 0.25
        value: -0.0141453855
        inSlope: -0.00281314
        outSlope: -0.00281314
        tangentMode: 0
      - time: 0.33333334
        value: -0.014384887
        inSlope: -0.002922339
        outSlope: -0.002922339
        tangentMode: 0
      - time: 0.4166667
        value: -0.014632442
        inSlope: -0.0030070692
        outSlope: -0.0030070692
        tangentMode: 0
      - time: 0.5
        value: -0.014886065
        inSlope: -0.0030674308
        outSlope: -0.0030674308
        tangentMode: 0
      - time: 0.5833333
        value: -0.01514368
        inSlope: -0.0031030707
        outSlope: -0.0031030707
        tangentMode: 0
      - time: 0.6666666
        value: -0.015403244
        inSlope: -0.0031145874
        outSlope: -0.0031145874
        tangentMode: 0
      - time: 0.74999994
        value: -0.015662778
        inSlope: -0.003101791
        outSlope: -0.003101791
        tangentMode: 0
      - time: 0.83333325
        value: -0.015920209
        inSlope: -0.0030643463
        outSlope: -0.0030643463
        tangentMode: 0
      - time: 0.91666657
        value: -0.016173502
        inSlope: -0.003002756
        outSlope: -0.003002756
        tangentMode: 0
      - time: 0.9999999
        value: -0.016420668
        inSlope: -0.0029169242
        outSlope: -0.0029169242
        tangentMode: 0
      - time: 1.0833333
        value: -0.016659657
        inSlope: -0.0028067739
        outSlope: -0.0028067739
        tangentMode: 0
      - time: 1.1666666
        value: -0.016888464
        inSlope: -0.0026722723
        outSlope: -0.0026722723
        tangentMode: 0
      - time: 1.25
        value: -0.017105035
        inSlope: -0.0025134187
        outSlope: -0.0025134187
        tangentMode: 0
      - time: 1.3333334
        value: -0.017307367
        inSlope: -0.0023306932
        outSlope: -0.0023306932
        tangentMode: 0
      - time: 1.4166667
        value: -0.017493485
        inSlope: -0.002123571
        outSlope: -0.002123571
        tangentMode: 0
      - time: 1.5000001
        value: -0.017661296
        inSlope: -0.0018921187
        outSlope: -0.0018921187
        tangentMode: 0
      - time: 1.5833335
        value: -0.017808838
        inSlope: -0.0016367503
        outSlope: -0.0016367503
        tangentMode: 0
      - time: 1.6666669
        value: -0.017934088
        inSlope: -0.0013568841
        outSlope: -0.0013568841
        tangentMode: 0
      - time: 1.7500002
        value: -0.018034985
        inSlope: -0.0010529007
        outSlope: -0.0010529007
        tangentMode: 0
      - time: 1.8333336
        value: -0.018109571
        inSlope: -0.0007249672
        outSlope: -0.0007249672
        tangentMode: 0
      - time: 1.916667
        value: -0.018155813
        inSlope: -0.00037267082
        outSlope: -0.00037267082
        tangentMode: 0
      - time: 2
        value: -0.018171683
        inSlope: -0.00019043757
        outSlope: -0.00019043757
        tangentMode: 0
      m_PreInfinity: 2
      m_PostInfinity: 2
      m_RotationOrder: 4
    attribute: m_LocalRotation.x
    path: 
    classID: 4
    script: {fileID: 0}
  - curve:
      serializedVersion: 2
      m_Curve:
      - time: 0
        value: 0.98613054
        inSlope: -0.001938343
        outSlope: -0.001938343
        tangentMode: 0
      - time: 0.083333336
        value: 0.985969
        inSlope: -0.0020223856
        outSlope: -0.0020223856
        tangentMode: 0
      - time: 0.16666667
        value: 0.9857935
        inSlope: -0.0021833181
        outSlope: -0.0021833181
        tangentMode: 0
      - time: 0.25
        value: 0.9856051
        inSlope: -0.0023303032
        outSlope: -0.0023303032
        tangentMode: 0
      - time: 0.33333334
        value: 0.9854051
        inSlope: -0.00246191
        outSlope: -0.00246191
        tangentMode: 0
      - time: 0.4166667
        value: 0.9851948
        inSlope: -0.0025774243
        outSlope: -0.0025774243
        tangentMode: 0
      - time: 0.5
        value: 0.9849755
        inSlope: -0.0026754148
        outSlope: -0.0026754148
        tangentMode: 0
      - time: 0.5833333
        value: 0.9847489
        inSlope: -0.0027537353
        outSlope: -0.0027537353
        tangentMode: 0
      - time: 0.6666666
        value: 0.98451656
        inSlope: -0.002811671
        outSlope: -0.002811671
        tangentMode: 0
      - time: 0.74999994
        value: 0.9842803
        inSlope: -0.0028474338
        outSlope: -0.0028474338
        tangentMode: 0
      - time: 0.83333325
        value: 0.984042
        inSlope: -0.0028599508
        outSlope: -0.0028599508
        tangentMode: 0
      - time: 0.91666657
        value: 0.98380363
        inSlope: -0.0028477914
        outSlope: -0.0028477914
        tangentMode: 0
      - time: 0.9999999
        value: 0.98356736
        inSlope: -0.0028091664
        outSlope: -0.0028091664
        tangentMode: 0
      - time: 1.0833333
        value: 0.98333544
        inSlope: -0.0027426467
        outSlope: -0.0027426467
        tangentMode: 0
      - time: 1.1666666
        value: 0.98311025
        inSlope: -0.0026475177
        outSlope: -0.0026475177
        tangentMode: 0
      - time: 1.25
        value: 0.9828942
        inSlope: -0.0025230634
        outSlope: -0.0025230634
        tangentMode: 0
      - time: 1.3333334
        value: 0.98268974
        inSlope: -0.0023674953
        outSlope: -0.0023674953
        tangentMode: 0
      - time: 1.4166667
        value: 0.9824996
        inSlope: -0.0021800986
        outSlope: -0.0021800986
        tangentMode: 0
      - time: 1.5000001
        value: 0.9823264
        inSlope: -0.001961588
        outSlope: -0.001961588
        tangentMode: 0
      - time: 1.5833335
        value: 0.98217267
        inSlope: -0.0017116062
        outSlope: -0.0017116062
        tangentMode: 0
      - time: 1.6666669
        value: 0.9820411
        inSlope: -0.0014287226
        outSlope: -0.0014287226
        tangentMode: 0
      - time: 1.7500002
        value: 0.98193455
        inSlope: -0.0011147256
        outSlope: -0.0011147256
        tangentMode: 0
      - time: 1.8333336
        value: 0.98185533
        inSlope: -0.00077104534
        outSlope: -0.00077104534
        tangentMode: 0
      - time: 1.916667
        value: 0.98180604
        inSlope: -0.0003973248
        outSlope: -0.0003973248
        tangentMode: 0
      - time: 2
        value: 0.9817891
        inSlope: -0.0002031334
        outSlope: -0.0002031334
        tangentMode: 0
      m_PreInfinity: 2
      m_PostInfinity: 2
      m_RotationOrder: 4
    attribute: m_LocalRotation.y
    path: 
    classID: 4
    script: {fileID: 0}
  - curve:
      serializedVersion: 2
      m_Curve:
      - time: 0
        value: -0.12982638
        inSlope: 0.0002553463
        outSlope: 0.0002553463
        tangentMode: 0
      - time: 0.083333336
        value: -0.1298051
        inSlope: 0.00026625395
        outSlope: 0.00026625395
        tangentMode: 0
      - time: 0.16666667
        value: -0.129782
        inSlope: 0.000287354
        outSlope: 0.000287354
        tangentMode: 0
      - time: 0.25
        value: -0.12975721
        inSlope: 0.0003068447
        outSlope: 0.0003068447
        tangentMode: 0
      - time: 0.33333334
        value: -0.12973087
        inSlope: 0.00032418963
        outSlope: 0.00032418963
        tangentMode: 0
      - time: 0.4166667
        value: -0.12970318
        inSlope: 0.00033929947
        outSlope: 0.00033929947
        tangentMode: 0
      - time: 0.5
        value: -0.12967432
        inSlope: 0.00035217413
        outSlope: 0.00035217413
        tangentMode: 0
      - time: 0.5833333
        value: -0.12964448
        inSlope: 0.00036254534
        outSlope: 0.00036254534
        tangentMode: 0
      - time: 0.6666666
        value: -0.12961389
        inSlope: 0.00037014493
        outSlope: 0.00037014493
        tangentMode: 0
      - time: 0.74999994
        value: -0.12958279
        inSlope: 0.0003748835
        outSlope: 0.0003748835
        tangentMode: 0
      - time: 0.83333325
        value: -0.12955141
        inSlope: 0.00037658223
        outSlope: 0.00037658223
        tangentMode: 0
      - time: 0.91666657
        value: -0.12952003
        inSlope: 0.0003747941
        outSlope: 0.0003747941
        tangentMode: 0
      - time: 0.9999999
        value: -0.12948895
        inSlope: 0.00036969775
        outSlope: 0.00036969775
        tangentMode: 0
      - time: 1.0833333
        value: -0.12945841
        inSlope: 0.00036111457
        outSlope: 0.00036111457
        tangentMode: 0
      - time: 1.1666666
        value: -0.12942876
        inSlope: 0.0003485976
        outSlope: 0.0003485976
        tangentMode: 0
      - time: 1.25
        value: -0.12940031
        inSlope: 0.0003321467
        outSlope: 0.0003321467
        tangentMode: 0
      - time: 1.3333334
        value: -0.1293734
        inSlope: 0.00031167254
        outSlope: 0.00031167254
        tangentMode: 0
      - time: 1.4166667
        value: -0.12934837
        inSlope: 0.00028699625
        outSlope: 0.00028699625
        tangentMode: 0
      - time: 1.5000001
        value: -0.12932557
        inSlope: 0.0002582072
        outSlope: 0.0002582072
        tangentMode: 0
      - time: 1.5833335
        value: -0.12930533
        inSlope: 0.00022530544
        outSlope: 0.00022530544
        tangentMode: 0
      - time: 1.6666669
        value: -0.12928802
        inSlope: 0.00018811217
        outSlope: 0.00018811217
        tangentMode: 0
      - time: 1.7500002
        value: -0.12927398
        inSlope: 0.00014680617
        outSlope: 0.00014680617
        tangentMode: 0
      - time: 1.8333336
        value: -0.12926355
        inSlope: 0.000101476864
        outSlope: 0.000101476864
        tangentMode: 0
      - time: 1.916667
        value: -0.12925707
        inSlope: 0.00005230311
        outSlope: 0.00005230311
        tangentMode: 0
      - time: 2
        value: -0.12925483
        inSlope: 0.000026822192
        outSlope: 0.000026822192
        tangentMode: 0
      m_PreInfinity: 2
      m_PostInfinity: 2
      m_RotationOrder: 4
    attribute: m_LocalRotation.z
    path: 
    classID: 4
    script: {fileID: 0}
  - curve:
      serializedVersion: 2
      m_Curve:
      - time: 0
        value: -0.10251581
        inSlope: -0.018506438
        outSlope: -0.018506438
        tangentMode: 0
      - time: 0.083333336
        value: -0.10405801
        inSlope: -0.019152224
        outSlope: -0.019152224
        tangentMode: 0
      - time: 0.16666667
        value: -0.10570785
        inSlope: -0.020351753
        outSlope: -0.020351753
        tangentMode: 0
      - time: 0.25
        value: -0.10744997
        inSlope: -0.021367908
        outSlope: -0.021367908
        tangentMode: 0
      - time: 0.33333334
        value: -0.109269165
        inSlope: -0.022197379
        outSlope: -0.022197379
        tangentMode: 0
      - time: 0.4166667
        value: -0.111149535
        inSlope: -0.022840979
        outSlope: -0.022840979
        tangentMode: 0
      - time: 0.5
        value: -0.113075994
        inSlope: -0.023299506
        outSlope: -0.023299506
        tangentMode: 0
      - time: 0.5833333
        value: -0.115032785
        inSlope: -0.023570275
        outSlope: -0.023570275
        tangentMode: 0
      - time: 0.6666666
        value: -0.11700437
        inSlope: -0.023657626
        outSlope: -0.023657626
        tangentMode: 0
      - time: 0.74999994
        value: -0.11897572
        inSlope: -0.023560485
        outSlope: -0.023560485
        tangentMode: 0
      - time: 0.83333325
        value: -0.12093112
        inSlope: -0.023276126
        outSlope: -0.023276126
        tangentMode: 0
      - time: 0.91666657
        value: -0.122855075
        inSlope: -0.02280817
        outSlope: -0.02280817
        tangentMode: 0
      - time: 0.9999999
        value: -0.12473248
        inSlope: -0.02215616
        outSlope: -0.02215616
        tangentMode: 0
      - time: 1.0833333
        value: -0.12654777
        inSlope: -0.021319527
        outSlope: -0.021319527
        tangentMode: 0
      - time: 1.1666666
        value: -0.12828574
        inSlope: -0.020297965
        outSlope: -0.020297965
        tangentMode: 0
      - time: 1.25
        value: -0.12993076
        inSlope: -0.019091418
        outSlope: -0.019091418
        tangentMode: 0
      - time: 1.3333334
        value: -0.13146764
        inSlope: -0.017703377
        outSlope: -0.017703377
        tangentMode: 0
      - time: 1.4166667
        value: -0.13288133
        inSlope: -0.016130082
        outSlope: -0.016130082
        tangentMode: 0
      - time: 1.5000001
        value: -0.13415599
        inSlope: -0.0143721625
        outSlope: -0.0143721625
        tangentMode: 0
      - time: 1.5833335
        value: -0.13527669
        inSlope: -0.012432391
        outSlope: -0.012432391
        tangentMode: 0
      - time: 1.6666669
        value: -0.13622805
        inSlope: -0.010306561
        outSlope: -0.010306561
        tangentMode: 0
      - time: 1.7500002
        value: -0.13699445
        inSlope: -0.007997539
        outSlope: -0.007997539
        tangentMode: 0
      - time: 1.8333336
        value: -0.13756098
        inSlope: -0.0055066617
        outSlope: -0.0055066617
        tangentMode: 0
      - time: 1.916667
        value: -0.13791223
        inSlope: -0.0028308053
        outSlope: -0.0028308053
        tangentMode: 0
      - time: 2
        value: -0.13803278
        inSlope: -0.0014466102
        outSlope: -0.0014466102
        tangentMode: 0
      m_PreInfinity: 2
      m_PostInfinity: 2
      m_RotationOrder: 4
    attribute: m_LocalRotation.w
    path: 
    classID: 4
    script: {fileID: 0}
  m_EulerEditorCurves:
  - curve:
      serializedVersion: 2
      m_Curve:
      - time: 0
        value: 14.9999695
        inSlope: 0
        outSlope: 0
        tangentMode: 10
      - time: 2
        value: 14.9999695
        inSlope: 0
        outSlope: Infinity
        tangentMode: 25
      m_PreInfinity: 2
      m_PostInfinity: 2
      m_RotationOrder: 4
    attribute: localEulerAnglesBaked.x
    path: 
    classID: 4
    script: {fileID: 0}
  - curve:
      serializedVersion: 2
      m_Curve:
      - time: 0
        value: 191.87003
        inSlope: 2.0679169
        outSlope: 2.0679169
        tangentMode: 10
      - time: 2
        value: 196.00586
        inSlope: 0
        outSlope: Infinity
        tangentMode: 25
      m_PreInfinity: 2
      m_PostInfinity: 2
      m_RotationOrder: 4
    attribute: localEulerAnglesBaked.y
    path: 
    classID: 4
    script: {fileID: 0}
  - curve:
      serializedVersion: 2
      m_Curve:
      - time: 0
        value: 0.000076293945
        inSlope: 0
        outSlope: 0
        tangentMode: 10
      - time: 2
        value: 0.000076293945
        inSlope: 0
        outSlope: Infinity
        tangentMode: 25
      m_PreInfinity: 2
      m_PostInfinity: 2
      m_RotationOrder: 4
    attribute: localEulerAnglesBaked.z
    path: 
    classID: 4
    script: {fileID: 0}
  m_HasGenericRootTransform: 1
  m_HasMotionFloatCurves: 0
  m_GenerateMotionCurves: 0
  m_Events: []
