%YAML 1.1
%TAG !u! tag:unity3d.com,2011:
--- !u!21 &2100000
Material:
  serializedVersion: 6
  m_ObjectHideFlags: 0
  m_PrefabParentObject: {fileID: 0}
  m_PrefabInternal: {fileID: 0}
  m_Name: off_waterjug
  m_Shader: {fileID: 4, guid: 0000000000000000f000000000000000, type: 0}
  m_ShaderKeywords: 
  m_LightmapFlags: 5
  m_CustomRenderQueue: -1
  stringTagMap: {}
  m_SavedProperties:
    serializedVersion: 2
    m_TexEnvs:
      data:
        first:
          name: _MainTex
        second:
          m_Texture: {fileID: 2800000, guid: 999cd2cd5ff3abc4fa9880e569bce997, type: 3}
          m_Scale: {x: 1, y: 1}
          m_Offset: {x: 0, y: 0}
      data:
        first:
          name: _BumpMap
        second:
          m_Texture: {fileID: 0}
          m_Scale: {x: 1, y: 1}
          m_Offset: {x: 0, y: 0}
    m_Floats:
      data:
        first:
          name: _Cutoff
        second: 0.254717
      data:
        first:
          name: _Shininess
        second: 0.11548349
    m_Colors:
      data:
        first:
          name: _Color
        second: {r: 0.86567163, g: 0.86567163, b: 0.86567163, a: 1}
      data:
        first:
          name: _SpecColor
        second: {r: 0.7761194, g: 0.7761194, b: 0.7761194, a: 0}
--- !u!1002 &2100001
EditorExtensionImpl:
  serializedVersion: 6
