%YAML 1.1
%TAG !u! tag:unity3d.com,2011:
--- !u!21 &2100000
Material:
  serializedVersion: 6
  m_ObjectHideFlags: 0
  m_PrefabParentObject: {fileID: 0}
  m_PrefabInternal: {fileID: 0}
  m_Name: T_Home_Garden_Foodbasket_02_COL
  m_Shader: {fileID: 46, guid: 0000000000000000f000000000000000, type: 0}
  m_ShaderKeywords: _NORMALMAP _PARALLAXMAP
  m_LightmapFlags: 5
  m_CustomRenderQueue: -1
  stringTagMap: {}
  m_SavedProperties:
    serializedVersion: 2
    m_TexEnvs:
      data:
        first:
          name: _MainTex
        second:
          m_Texture: {fileID: 2800000, guid: b8e5a4791df7bb4498ebf2e9792a7c4c, type: 3}
          m_Scale: {x: 1, y: 1}
          m_Offset: {x: 0, y: 0}
      data:
        first:
          name: _BumpMap
        second:
          m_Texture: {fileID: 2800000, guid: a40a84ff94c20c84bbd7c907505fdb46, type: 3}
          m_Scale: {x: 1, y: 1}
          m_Offset: {x: 0, y: 0}
      data:
        first:
          name: _DetailNormalMap
        second:
          m_Texture: {fileID: 0}
          m_Scale: {x: 1, y: 1}
          m_Offset: {x: 0, y: 0}
      data:
        first:
          name: _ParallaxMap
        second:
          m_Texture: {fileID: 2800000, guid: 2cd1850b221dad649a7ced48298ca7fa, type: 3}
          m_Scale: {x: 1, y: 1}
          m_Offset: {x: 0, y: 0}
      data:
        first:
          name: _OcclusionMap
        second:
          m_Texture: {fileID: 0}
          m_Scale: {x: 1, y: 1}
          m_Offset: {x: 0, y: 0}
      data:
        first:
          name: _EmissionMap
        second:
          m_Texture: {fileID: 0}
          m_Scale: {x: 1, y: 1}
          m_Offset: {x: 0, y: 0}
      data:
        first:
          name: _DetailMask
        second:
          m_Texture: {fileID: 0}
          m_Scale: {x: 1, y: 1}
          m_Offset: {x: 0, y: 0}
      data:
        first:
          name: _DetailAlbedoMap
        second:
          m_Texture: {fileID: 0}
          m_Scale: {x: 1, y: 1}
          m_Offset: {x: 0, y: 0}
      data:
        first:
          name: _MetallicGlossMap
        second:
          m_Texture: {fileID: 0}
          m_Scale: {x: 1, y: 1}
          m_Offset: {x: 0, y: 0}
    m_Floats:
      data:
        first:
          name: _SrcBlend
        second: 1
      data:
        first:
          name: _DstBlend
        second: 0
      data:
        first:
          name: _Cutoff
        second: 0.5
      data:
        first:
          name: _Shininess
        second: 0.078125
      data:
        first:
          name: _Parallax
        second: 0.0114
      data:
        first:
          name: _ZWrite
        second: 1
      data:
        first:
          name: _Glossiness
        second: 0.252
      data:
        first:
          name: _BumpScale
        second: 1
      data:
        first:
          name: _OcclusionStrength
        second: 1
      data:
        first:
          name: _DetailNormalMapScale
        second: 1
      data:
        first:
          name: _UVSec
        second: 0
      data:
        first:
          name: _Mode
        second: 0
      data:
        first:
          name: _Metallic
        second: 0
    m_Colors:
      data:
        first:
          name: _EmissionColor
        second: {r: 0, g: 0, b: 0, a: 1}
      data:
        first:
          name: _Color
        second: {r: 1, g: 1, b: 1, a: 1}
      data:
        first:
          name: _SpecColor
        second: {r: 0.5, g: 0.5, b: 0.5, a: 1}
